^C:\USERS\EGGETCOOL\DOCUMENTS\BITBUCKET\GAMEPROGRAMMINGII-VT16\DEPENDENCIES\LTBL2\CMAKEFILES\3.4.3\COMPILERIDC\CMAKECCOMPILERID.C
C:\WINDOWS\GLOBALIZATION\SORTING\SORTDEFAULT.NLS
F:\PROGRAM FILES (X86)\VISUAL\VC\BIN\X86_AMD64\1033\CLUI.DLL
C:\WINDOWS\SYSTEM32\TZRES.DLL
